New York R Conference Highlights
…
Emily Robinsons description of how to make a package with usethis

Jaqueline Nolis really funny talk on how neural nets arent actually hard at all

Andrew Gelmans discussion on solving all your statistical problems with p-values

A bonus!

This was not from the New York R Conference but I saw it on Twitter while making these slides and I just love it so much

#install.packages("genius")
library(genius)
genius_lyrics("the beatles", "hey jude")

## # A tibble: 53 x 3
##    track_title  line lyric                                           
##    <chr>       <int> <chr>                                           
##  1 Hey Jude        1 Hey Jude, don't make it bad                     
##  2 Hey Jude        2 Take a sad song and make it better              
##  3 Hey Jude        3 Remember to let her into your heart             
##  4 Hey Jude        4 Then you can start to make it better            
##  5 Hey Jude        5 Hey Jude, don't be afraid                       
##  6 Hey Jude        6 You were made to go out and get her             
##  7 Hey Jude        7 The minute you let her under your skin          
##  8 Hey Jude        8 Then you begin to make it better                
##  9 Hey Jude        9 And anytime you feel the pain, hey Jude, refrain
## 10 Hey Jude       10 Don't carry the world upon your shoulders       
## #  with 43 more rows
…
